chapter_13/tut13.vcd
$date
	Thu Apr 23 20:52:52 2026
$end
$version
	Icarus Verilog
$end
$timescale
	1ns
$end
$scope module tb $end
$scope module tut13_instance $end
$var wire 16 ! _net_36 [15:0] $end
$var wire 1 " _rmod_m_clock $end
$var wire 1 # _rmod_next_rand $end
$var wire 1 $ _rmod_p_reset $end
$var wire 1 % _rmod_set_seed $end
$var wire 1 & m_clock $end
$var wire 1 ' p_reset $end
$var wire 16 ( _rmod_seed [15:0] $end
$var wire 16 ) _rmod_q [15:0] $end
$var wire 1 * _net_37 $end
$var wire 1 + _net_33 $end
$var reg 16 , count [15:0] $end
$scope module rmod $end
$var wire 16 - _net_0 [15:0] $end
$var wire 1 & m_clock $end
$var wire 1 # next_rand $end
$var wire 1 ' p_reset $end
$var wire 16 . seed [15:0] $end
$var wire 1 % set_seed $end
$var wire 16 / q [15:0] $end
$var wire 1 0 _net_9 $end
$var wire 16 1 _net_8 [15:0] $end
$var wire 1 2 _net_7 $end
$var wire 16 3 _net_6 [15:0] $end
$var wire 1 4 _net_5 $end
$var wire 16 5 _net_4 [15:0] $end
$var wire 16 6 _net_32 [15:0] $end
$var wire 1 7 _net_31 $end
$var wire 16 8 _net_30 [15:0] $end
$var wire 1 9 _net_3 $end
$var wire 1 : _net_29 $end
$var wire 16 ; _net_28 [15:0] $end
$var wire 1 < _net_27 $end
$var wire 16 = _net_26 [15:0] $end
$var wire 1 > _net_25 $end
$var wire 16 ? _net_24 [15:0] $end
$var wire 1 @ _net_23 $end
$var wire 16 A _net_22 [15:0] $end
$var wire 1 B _net_21 $end
$var wire 16 C _net_20 [15:0] $end
$var wire 16 D _net_2 [15:0] $end
$var wire 1 E _net_19 $end
$var wire 16 F _net_18 [15:0] $end
$var wire 1 G _net_17 $end
$var wire 16 H _net_16 [15:0] $end
$var wire 1 I _net_15 $end
$var wire 16 J _net_14 [15:0] $end
$var wire 1 K _net_13 $end
$var wire 16 L _net_12 [15:0] $end
$var wire 1 M _net_11 $end
$var wire 16 N _net_10 [15:0] $end
$var wire 1 O _net_1 $end
$var reg 16 P r [15:0] $end
$upscope $end
$upscope $end
$upscope $end
$enddefinitions $end
#0
$dumpvars
b11100110100101 P
0O
b10010 N
0M
b10010 L
1K
b1010010 J
1I
b11010010 H
0G
b11010010 F
0E
b0 D
b11010010 C
0B
b11010010 A
1@
b100011010010 ?
0>
b100011010010 =
1<
b10100011010010 ;
0:
19
b10100011010010 8
17
b1010100011010010 6
b10 5
04
b10 3
02
b10 1
10
b11100110100101 /
bx .
b0 -
b0 ,
0+
0*
b11100110100101 )
bx (
1'
0&
0%
1$
1#
0"
b0 !
$end
#1
1"
1&
#2
0"
0&
0$
0'
#3
b1101001 C
b1 3
b1101001 J
b1101001 F
b10001101001 A
b1010001101001 =
b1010001101001 ;
b1 D
b1 5
b1001 1
b1001 N
b101001 L
b1101001 H
b10001101001 ?
b101010001101001 8
b101010001101001 6
1B
1>
0<
1O
09
12
00
1M
0I
0@
1:
07
b1010100011010010 )
b1010100011010010 /
b1010100011010010 P
b1 !
b1 ,
1"
1&
#4
0"
0&
#5
b110100 F
b1111000110100 ;
b0 5
b110100 L
b110100 H
b11000110100 A
b1111000110100 =
b0 D
b100 3
b100 1
b10100 N
b110100 J
b1000110100 C
b111000110100 ?
b1111000110100 8
b1001111000110100 6
0O
14
02
10
0K
1E
1@
0:
17
b101010001101001 )
b101010001101001 /
b10 !
b10 ,
b101010001101001 P
1"
1&
#6
0"
0&
#7
b111100011010 ?
b11010 H
b11100011010 A
b111100011010 ;
b11010 N
b11010 J
b1100011010 C
b111100011010 =
b10 5
b10 3
b1010 1
b11010 L
b100011010 F
b100111100011010 8
b100111100011010 6
0>
19
04
12
0M
1G
1:
07
b1001111000110100 )
b1001111000110100 /
b1001111000110100 P
b11 !
b11 ,
1"
1&
#8
0"
0&
#9
b11110001101 A
b1101 J
b1110001101 C
b1101 1
b1101 L
b110001101 F
b11110001101 =
b10011110001101 6
b10011110001101 ;
b1 D
b1 5
b101 3
b1101 N
b10001101 H
b11110001101 ?
b10011110001101 8
1<
1O
09
14
00
1I
0@
0:
b100111100011010 )
b100111100011010 /
b100 !
b100 ,
b100111100011010 P
1"
1&
#10
0"
0&
#11
b10011111000110 8
b10011111000110 ;
b11111000110 =
b11111000110 ?
b11111000110 A
b1111000110 C
b110 L
b111000110 F
b110 3
b110 N
b11000110 H
b0 D
b10 5
b110 1
b1000110 J
b1010011111000110 6
0O
19
02
1K
17
b10011110001101 )
b10011110001101 /
b10011110001101 P
b101 !
b101 ,
1"
1&
#12
0"
0&
#13
b1111100011 C
b111100011 F
b11 N
b11100011 H
b1111100011 ?
b11 5
b11 1
b1100011 J
b1111100011 A
b1001111100011 =
b1001111100011 ;
b1 D
b11 3
b100011 L
b101001111100011 8
b101001111100011 6
0B
1>
0<
1O
04
1M
1:
07
b1010011111000110 )
b1010011111000110 /
b110 !
b110 ,
b1010011111000110 P
1"
1&
#14
0"
0&
#15
0O
b0 D
b0 5
04
b0 3
02
b0 1
b0 N
0M
b0 L
0K
b0 J
0I
b0 H
0G
b0 F
b0 C
0B
b0 A
b0 ?
0>
b0 =
0<
b0 ;
b0 8
b0 6
09
00
0E
0@
0:
07
0#
bx )
bx /
b1001100001111101 (
b1001100001111101 .
1%
1*
b101001111100011 P
b111 !
b111 ,
1"
1&
#16
0"
0&
#17
0O
b0 D
19
b10 5
14
b110 3
12
b1110 1
10
b11110 N
1M
b111110 L
0K
b111110 J
0I
b111110 H
0G
b111110 F
0E
b111110 C
0B
b111110 A
1@
b100000111110 ?
1>
b1100000111110 =
1<
b11100000111110 ;
1:
b111100000111110 8
17
b1111100000111110 6
b1001100001111101 )
b1001100001111101 /
1#
bx (
bx .
0%
0*
b1000 !
b1000 ,
b1001100001111101 P
1"
1&
#18
0"
0&
#19
b111110000011111 8
b11111 N
b11111 C
b11110000011111 ;
b1111 1
b11111 F
b1110000011111 =
b111 3
b11111 H
b110000011111 ?
b11 5
b11111 J
b10000011111 A
b1 D
b11111 L
b111110000011111 6
1B
1O
0M
07
b1111100000111110 )
b1111100000111110 /
b1111100000111110 P
b1001 !
b1001 ,
1"
1&
#20
0"
0&
#21
0O
b0 D
09
b0 5
04
b0 3
02
b0 1
b0 N
0M
b0 L
0K
b0 J
0I
b0 H
0G
b0 F
b0 C
0B
b0 A
0@
b0 ?
0>
b0 =
0<
b0 ;
b0 8
b0 6
00
0E
0:
07
0#
bx )
bx /
1+
b1010 !
b1010 ,
b111110000011111 P
1"
1&
#22
0"
0&
#23
1O
b1 D
19
b11 5
14
b111 3
12
b1111 1
00
b1111 N
0M
b1111 L
0K
b1111 J
0I
b1111 H
0G
b1111 F
1E
b1000001111 C
0B
b1000001111 A
1@
b101000001111 ?
0>
b101000001111 =
0<
b101000001111 ;
0:
b101000001111 8
17
b1000101000001111 6
b111110000011111 )
b111110000011111 /
1#
0+
b1011 !
b1011 ,
1"
1&
